NAO NAO NAO NAO 
NAO NAO NAO NAO 
NAO NAO NAO NAO 
NAO NAO NAO NAO 
SIM NAO NAO NAO 
NAO NAO NAO NAO 
NAO NAO NAO NAO 
NAO NAO NAO NAO 
NAO NAO NAO NAO 
NAO NAO NAO NAO 
NAO NAO NAO NAO 
NAO NAO NAO NAO 
NAO NAO NAO NAO 
NAO NAO NAO NAO 
NAO NAO NAO NAO 
NAO NAO NAO NAO 
NAO NAO NAO NAO 
NAO NAO NAO NAO 
NAO NAO NAO NAO 
NAO NAO NAO NAO 
NAO NAO NAO NAO 
NAO NAO NAO NAO 
NAO NAO NAO NAO 
NAO NAO NAO NAO 
NAO NAO NAO NAO 
NAO NAO NAO NAO 
NAO NAO NAO NAO 
NAO NAO NAO NAO 
NAO NAO NAO NAO 
NAO NAO NAO NAO 
NAO NAO NAO NAO 
NAO NAO NAO NAO 
NAO NAO NAO NAO 
NAO NAO NAO NAO 
NAO NAO NAO NAO 
NAO NAO NAO NAO 
NAO NAO NAO NAO 
NAO NAO NAO NAO 
NAO NAO NAO NAO 
NAO NAO NAO NAO 
NAO NAO NAO NAO 
NAO NAO NAO NAO 
NAO NAO NAO NAO 
NAO NAO NAO NAO 
NAO NAO NAO NAO 
NAO NAO NAO NAO 
NAO NAO NAO NAO 
NAO NAO NAO NAO 
NAO NAO NAO NAO 
NAO NAO NAO NAO 
NAO NAO NAO NAO 
NAO NAO NAO NAO 
NAO NAO NAO NAO 
NAO NAO NAO NAO 
NAO NAO NAO NAO 
NAO NAO NAO NAO 
NAO NAO NAO NAO 
NAO NAO NAO NAO 
NAO NAO NAO NAO 
NAO NAO NAO NAO 
NAO NAO NAO NAO 
NAO NAO NAO NAO 
NAO NAO NAO NAO 
NAO NAO NAO NAO 
NAO NAO NAO NAO 
NAO NAO NAO NAO 
NAO NAO NAO NAO 
NAO NAO NAO NAO 
NAO NAO NAO NAO 
NAO NAO NAO NAO 
NAO NAO NAO NAO 
NAO NAO NAO NAO 
NAO NAO NAO NAO 
NAO NAO NAO NAO 
NAO NAO NAO NAO 
NAO NAO NAO NAO 
NAO NAO NAO NAO 
NAO NAO NAO NAO 
NAO NAO NAO NAO 
NAO NAO NAO NAO 
NAO NAO NAO NAO 
NAO NAO NAO NAO 
NAO NAO NAO NAO 
NAO NAO NAO NAO 
NAO NAO NAO NAO 
NAO NAO NAO NAO 
NAO NAO NAO NAO 
NAO NAO NAO NAO 
NAO NAO NAO NAO 
NAO NAO NAO NAO 
NAO NAO NAO NAO 
NAO NAO NAO NAO 
NAO NAO NAO NAO 
NAO NAO NAO NAO 
NAO NAO NAO NAO 
NAO NAO NAO NAO 
NAO NAO NAO NAO 
NAO NAO NAO NAO 
NAO NAO NAO NAO 
NAO NAO NAO NAO 
NAO NAO NAO NAO 
NAO NAO NAO NAO 
NAO NAO NAO NAO 
NAO NAO NAO NAO 
NAO NAO NAO NAO 
NAO NAO NAO NAO 
NAO NAO NAO NAO 
NAO NAO NAO NAO 
NAO NAO NAO NAO 
NAO NAO NAO NAO 
NAO NAO NAO NAO 
NAO NAO NAO NAO 
NAO NAO NAO NAO 
NAO NAO NAO NAO 
NAO NAO NAO NAO 
NAO NAO NAO NAO 
NAO NAO NAO NAO 
NAO NAO NAO NAO 
NAO NAO NAO NAO 
NAO NAO NAO NAO 
NAO NAO NAO NAO 
NAO NAO NAO NAO 
NAO NAO NAO NAO 
NAO NAO NAO NAO 
NAO NAO NAO NAO 
NAO NAO NAO NAO 
NAO NAO NAO NAO 
NAO NAO NAO NAO 
NAO NAO NAO NAO 
NAO NAO NAO NAO 
NAO NAO NAO NAO 
NAO NAO NAO NAO 
NAO NAO NAO NAO 
NAO NAO NAO NAO 
NAO NAO NAO NAO 
NAO NAO NAO NAO 
NAO NAO NAO NAO 
NAO NAO NAO NAO 
NAO NAO NAO NAO 
NAO NAO NAO NAO 
NAO NAO NAO NAO 
NAO NAO NAO NAO 
NAO NAO NAO NAO 
NAO NAO NAO NAO 
NAO NAO NAO NAO 
NAO NAO NAO NAO 
NAO NAO NAO NAO 
NAO NAO NAO NAO 
NAO NAO NAO NAO 
NAO NAO NAO NAO 
NAO NAO NAO NAO 
NAO NAO NAO NAO 
NAO NAO NAO NAO 
NAO NAO NAO NAO 
NAO NAO NAO NAO 
NAO NAO NAO NAO 
NAO NAO NAO NAO 
NAO NAO NAO NAO 
NAO NAO NAO NAO 
NAO NAO NAO NAO 
NAO NAO NAO NAO 
NAO NAO NAO NAO 
NAO NAO NAO NAO 
NAO NAO NAO NAO 
NAO NAO NAO NAO 
NAO NAO NAO NAO 
NAO NAO NAO NAO 
NAO NAO NAO NAO 
NAO NAO NAO NAO 
NAO NAO NAO NAO 
NAO NAO NAO NAO 
NAO NAO NAO NAO 
NAO NAO NAO NAO 
NAO NAO NAO NAO 
NAO NAO NAO NAO 
NAO NAO NAO NAO 
NAO NAO NAO NAO 
NAO NAO NAO NAO 
NAO NAO NAO NAO 
NAO NAO NAO NAO 
NAO NAO NAO NAO 
NAO NAO NAO NAO 
NAO NAO NAO NAO 
NAO NAO NAO NAO 
NAO NAO NAO NAO 
NAO NAO NAO NAO 
NAO NAO NAO NAO 
NAO NAO NAO NAO 
NAO NAO NAO NAO 
NAO NAO NAO NAO 
NAO NAO NAO NAO 
NAO NAO NAO NAO 
NAO NAO NAO NAO 
NAO NAO NAO NAO 
NAO NAO NAO NAO 
NAO NAO NAO NAO 
NAO NAO NAO NAO 
NAO NAO NAO NAO 
NAO NAO NAO NAO 
NAO NAO NAO NAO 
NAO NAO NAO NAO 
NAO NAO NAO NAO 
NAO NAO NAO NAO 
NAO NAO NAO NAO 
NAO NAO NAO NAO 
NAO NAO NAO NAO 
NAO NAO NAO NAO 
NAO NAO NAO NAO 
NAO NAO NAO NAO 
NAO NAO NAO NAO 
NAO NAO NAO NAO 
NAO NAO NAO NAO 
NAO NAO NAO NAO 
NAO NAO NAO NAO 
NAO NAO NAO NAO 
NAO NAO NAO NAO 
NAO NAO NAO NAO 
NAO NAO NAO NAO 
NAO NAO NAO NAO 
NAO NAO NAO NAO 
NAO NAO NAO NAO 
NAO NAO NAO NAO 
NAO NAO NAO NAO 
NAO NAO NAO NAO 
NAO NAO NAO NAO 
NAO NAO NAO NAO 
NAO NAO NAO NAO 
NAO NAO NAO NAO 
NAO NAO NAO NAO 
NAO NAO NAO NAO 
NAO NAO NAO NAO 
NAO NAO NAO NAO 
NAO NAO NAO NAO 
NAO NAO NAO NAO 
NAO NAO NAO NAO 
NAO NAO NAO NAO 
NAO NAO NAO NAO 
NAO NAO NAO NAO 
NAO NAO NAO NAO 
NAO NAO NAO NAO 
NAO NAO NAO NAO 
NAO NAO NAO NAO 
NAO NAO NAO NAO 
NAO NAO NAO NAO 
NAO NAO NAO NAO 
NAO NAO NAO NAO 
NAO NAO NAO NAO 
NAO NAO NAO NAO 
NAO NAO NAO NAO 
NAO NAO NAO NAO 
NAO NAO NAO NAO 
NAO NAO NAO NAO 
NAO NAO NAO NAO 
NAO NAO NAO NAO 
NAO NAO NAO NAO 
NAO NAO NAO NAO 
NAO NAO NAO NAO 
NAO NAO NAO NAO 
NAO NAO NAO NAO 
NAO NAO NAO NAO 
NAO NAO NAO NAO 
NAO NAO NAO NAO 
NAO NAO NAO NAO 
NAO NAO NAO NAO 
NAO NAO NAO NAO 
NAO NAO NAO NAO 
NAO NAO NAO NAO 
NAO NAO NAO NAO 
NAO NAO NAO NAO 
NAO NAO NAO NAO 
NAO NAO NAO NAO 
NAO NAO NAO NAO 
NAO NAO NAO NAO 
NAO NAO NAO NAO 
NAO NAO NAO NAO 
NAO NAO NAO NAO 
NAO NAO NAO NAO 
NAO NAO NAO NAO 
NAO NAO NAO NAO 
NAO NAO NAO NAO 
NAO NAO NAO NAO 
NAO NAO NAO NAO 
NAO NAO NAO NAO 
NAO NAO NAO NAO 
NAO NAO NAO NAO 
NAO NAO NAO NAO 
NAO NAO NAO NAO 
NAO NAO NAO NAO 
NAO NAO NAO NAO 
NAO NAO NAO NAO 
NAO NAO NAO NAO 
NAO NAO NAO NAO 
NAO NAO NAO NAO 
NAO NAO NAO NAO 
NAO NAO NAO NAO 
NAO NAO NAO NAO 
NAO NAO NAO NAO 
NAO NAO NAO NAO 
NAO NAO NAO NAO 
NAO NAO NAO NAO 
NAO NAO NAO NAO 
NAO NAO NAO NAO 
NAO NAO NAO NAO 
NAO NAO NAO NAO 
NAO NAO NAO NAO 
NAO NAO NAO NAO 
NAO NAO NAO NAO 
NAO NAO NAO NAO 
NAO NAO NAO NAO 
NAO NAO NAO NAO 
NAO NAO NAO NAO 
NAO NAO NAO NAO 
NAO NAO NAO NAO 
NAO NAO NAO NAO 
NAO NAO NAO NAO 
NAO NAO NAO NAO 
NAO NAO NAO NAO 
NAO NAO NAO NAO 
NAO NAO NAO NAO 
NAO NAO NAO NAO 
NAO NAO NAO NAO 
NAO NAO NAO NAO 
NAO NAO NAO NAO 
NAO NAO NAO NAO 
NAO NAO NAO NAO 
NAO NAO NAO NAO 
NAO NAO NAO NAO 
NAO NAO NAO NAO 
NAO NAO NAO NAO 
NAO NAO NAO NAO 
NAO NAO NAO NAO 
NAO NAO NAO NAO 
NAO NAO NAO NAO 
NAO NAO NAO NAO 
NAO NAO NAO NAO 
NAO NAO NAO NAO 
NAO NAO NAO NAO 
NAO NAO NAO NAO 
NAO NAO NAO NAO 
NAO NAO NAO NAO 
NAO NAO NAO NAO 
NAO NAO NAO NAO 
NAO NAO NAO NAO 
NAO NAO NAO NAO 
NAO NAO NAO NAO 
NAO NAO NAO NAO 
NAO NAO NAO NAO 
NAO NAO NAO NAO 
NAO NAO NAO NAO 
NAO NAO NAO NAO 
NAO NAO NAO NAO 
NAO NAO NAO NAO 
NAO NAO NAO NAO 
NAO NAO NAO NAO 
NAO NAO NAO NAO 
NAO NAO NAO NAO 
NAO NAO NAO NAO 
NAO NAO NAO NAO 
NAO NAO NAO NAO 
NAO NAO NAO NAO 
NAO NAO NAO NAO 
NAO NAO NAO NAO 
NAO NAO NAO NAO 
NAO NAO NAO NAO 
NAO NAO NAO NAO 
NAO NAO NAO NAO 
NAO NAO NAO NAO 
NAO NAO NAO NAO 
NAO NAO NAO NAO 
NAO NAO NAO NAO 
NAO NAO NAO NAO 
NAO NAO NAO NAO 
NAO NAO NAO NAO 
NAO NAO NAO NAO 
NAO NAO NAO NAO 
NAO NAO NAO NAO 
NAO NAO NAO NAO 
NAO NAO NAO NAO 
NAO NAO NAO NAO 
NAO NAO NAO NAO 
NAO NAO NAO NAO 
NAO NAO NAO NAO 
NAO NAO NAO NAO 
NAO NAO NAO NAO 
NAO NAO NAO NAO 
NAO NAO NAO NAO 
NAO NAO NAO NAO 
NAO NAO NAO NAO 
NAO NAO NAO NAO 
NAO NAO NAO NAO 
NAO NAO NAO NAO 
NAO NAO NAO NAO 
NAO NAO NAO NAO 
NAO NAO NAO NAO 
NAO NAO NAO NAO 
NAO NAO NAO NAO 
NAO NAO NAO NAO 
NAO NAO NAO NAO 
NAO NAO NAO NAO 
NAO NAO NAO NAO 
NAO NAO NAO NAO 
NAO NAO NAO NAO 
NAO NAO NAO NAO 
NAO NAO NAO NAO 
NAO NAO NAO NAO 
NAO NAO NAO NAO 
NAO NAO NAO NAO 
NAO NAO NAO NAO 
NAO NAO NAO NAO 
NAO NAO NAO NAO 
NAO NAO NAO NAO 
NAO NAO NAO NAO 
NAO NAO NAO NAO 
NAO NAO NAO NAO 
NAO NAO NAO NAO 
NAO NAO NAO NAO 
NAO NAO NAO NAO 
NAO NAO NAO NAO 
NAO NAO NAO NAO 
NAO NAO NAO NAO 
NAO NAO NAO NAO 
NAO NAO NAO NAO 
NAO NAO NAO NAO 
NAO NAO NAO NAO 
NAO NAO NAO NAO 
NAO NAO NAO NAO 
NAO NAO NAO NAO 
NAO NAO NAO NAO 
NAO NAO NAO NAO 
NAO NAO NAO NAO 
NAO NAO NAO NAO 
NAO NAO NAO NAO 
NAO NAO NAO NAO 
NAO NAO NAO NAO 
NAO NAO NAO NAO 
NAO NAO NAO NAO 
NAO NAO NAO NAO 
NAO NAO NAO NAO 
NAO NAO NAO NAO 
NAO NAO NAO NAO 
NAO NAO NAO NAO 
NAO NAO NAO NAO 
NAO NAO NAO NAO 
NAO NAO NAO NAO 
NAO NAO NAO NAO 
NAO NAO NAO NAO 
NAO NAO NAO NAO 
NAO NAO NAO NAO 
NAO NAO NAO NAO 
NAO NAO NAO NAO 
NAO NAO NAO NAO 
NAO NAO NAO NAO 
NAO NAO NAO NAO 
NAO NAO NAO NAO 
NAO NAO NAO NAO 
NAO NAO NAO NAO 
NAO NAO NAO NAO 
NAO NAO NAO NAO 
NAO NAO NAO NAO 
NAO NAO NAO NAO 
NAO NAO NAO NAO 
NAO NAO NAO NAO 
NAO NAO NAO NAO 
NAO NAO NAO NAO 
NAO NAO NAO NAO 
NAO NAO NAO NAO 
NAO NAO NAO NAO 
NAO NAO NAO NAO 
NAO NAO NAO NAO 
NAO NAO NAO NAO 
NAO NAO NAO NAO 
NAO NAO NAO NAO 
NAO NAO NAO NAO 
NAO NAO NAO NAO 
NAO NAO NAO NAO 
NAO NAO NAO NAO 
NAO NAO NAO NAO 
NAO NAO NAO NAO 
NAO NAO NAO NAO 
NAO NAO NAO NAO 
NAO NAO NAO NAO 
NAO NAO NAO NAO 
NAO NAO NAO NAO 
NAO NAO NAO NAO 
NAO NAO NAO NAO 
NAO NAO NAO NAO 
NAO NAO NAO NAO 
NAO NAO NAO NAO 
NAO NAO NAO NAO 
NAO NAO NAO NAO 
NAO NAO NAO NAO 
NAO NAO NAO NAO 
NAO NAO NAO NAO 
NAO NAO NAO NAO 
NAO NAO NAO NAO 
NAO NAO NAO NAO 
NAO NAO NAO NAO 
NAO NAO NAO NAO 
NAO NAO NAO NAO 
NAO NAO NAO NAO 
NAO NAO NAO NAO 
NAO NAO NAO NAO 
NAO NAO NAO NAO 
NAO NAO NAO NAO 
NAO NAO NAO NAO 
NAO NAO NAO NAO 
NAO NAO NAO NAO 
NAO NAO NAO NAO 
NAO NAO NAO NAO 
NAO NAO NAO NAO 
NAO NAO NAO NAO 
NAO NAO NAO NAO 
NAO NAO NAO NAO 
NAO NAO NAO NAO 
NAO NAO NAO NAO 
NAO NAO NAO NAO 
NAO NAO NAO NAO 
NAO NAO NAO NAO 
NAO NAO NAO NAO 
NAO NAO NAO NAO 
NAO NAO NAO NAO 
NAO NAO NAO NAO 
NAO NAO NAO NAO 
NAO NAO NAO NAO 
NAO NAO NAO NAO 
NAO NAO NAO NAO 
NAO NAO NAO NAO 
NAO NAO NAO NAO 
NAO NAO NAO NAO 
NAO NAO NAO NAO 
NAO NAO NAO NAO 
NAO NAO NAO NAO 
NAO NAO NAO NAO 
NAO NAO NAO NAO 
NAO NAO NAO NAO 
NAO NAO NAO NAO 
NAO NAO NAO NAO 
NAO NAO NAO NAO 
NAO NAO NAO NAO 
NAO NAO NAO NAO 
NAO NAO NAO NAO 
NAO NAO NAO NAO 
NAO NAO NAO NAO 
NAO NAO NAO NAO 
NAO NAO NAO NAO 
NAO NAO NAO NAO 
NAO NAO NAO NAO 
NAO NAO NAO NAO 
NAO NAO NAO NAO 
NAO NAO NAO NAO 
NAO NAO NAO NAO 
NAO NAO NAO NAO 
NAO NAO NAO NAO 
NAO NAO NAO NAO 
NAO NAO NAO NAO 
NAO NAO NAO NAO 
NAO NAO NAO NAO 
NAO NAO NAO NAO 
NAO NAO NAO NAO 
NAO NAO NAO NAO 
NAO NAO NAO NAO 
NAO NAO NAO NAO 
NAO NAO NAO NAO 
NAO NAO NAO NAO 
NAO NAO NAO NAO 
NAO NAO NAO NAO 
NAO NAO NAO NAO 
NAO NAO NAO NAO 
NAO NAO NAO NAO 
NAO NAO NAO NAO 
NAO NAO NAO NAO 
NAO NAO NAO NAO 
NAO NAO NAO NAO 
NAO NAO NAO NAO 
NAO NAO NAO NAO 
NAO NAO NAO NAO 
NAO NAO NAO NAO 
NAO NAO NAO NAO 
NAO NAO NAO NAO 
NAO NAO NAO NAO 
NAO NAO NAO NAO 
NAO NAO NAO NAO 
NAO NAO NAO NAO 
NAO NAO NAO NAO 
NAO NAO NAO NAO 
NAO NAO NAO NAO 
NAO NAO NAO NAO 
NAO NAO NAO NAO 
NAO NAO NAO NAO 
NAO NAO NAO NAO 
NAO NAO NAO NAO 
NAO NAO NAO NAO 
NAO NAO NAO NAO 
NAO NAO NAO NAO 
NAO NAO NAO NAO 
NAO NAO NAO NAO 
NAO NAO NAO NAO 
NAO NAO NAO NAO 
NAO NAO NAO NAO 
NAO NAO NAO NAO 
NAO NAO NAO NAO 
NAO NAO NAO NAO 
NAO NAO NAO NAO 
NAO NAO NAO NAO 
NAO NAO NAO NAO 
NAO NAO NAO NAO 
NAO NAO NAO NAO 
NAO NAO NAO NAO 
NAO NAO NAO NAO 
NAO NAO NAO NAO 
NAO NAO NAO NAO 
NAO NAO NAO NAO 
NAO NAO NAO NAO 
NAO NAO NAO NAO 
NAO NAO NAO NAO 
NAO NAO NAO NAO 
NAO NAO NAO NAO 
NAO NAO NAO NAO 
NAO NAO NAO NAO 
NAO NAO NAO NAO 
NAO NAO NAO NAO 
NAO NAO NAO NAO 
NAO NAO NAO NAO 
NAO NAO NAO NAO 
NAO NAO NAO NAO 
NAO NAO NAO NAO 
NAO NAO NAO NAO 
NAO NAO NAO NAO 
NAO NAO NAO NAO 
NAO NAO NAO NAO 
NAO NAO NAO NAO 
NAO NAO NAO NAO 
NAO NAO NAO NAO 
NAO NAO NAO NAO 
NAO NAO NAO NAO 
NAO NAO NAO NAO 
NAO NAO NAO NAO 
NAO NAO NAO NAO 
NAO NAO NAO NAO 
NAO NAO NAO NAO 
NAO SIM SIM SIM 
NAO SIM SIM SIM 
NAO SIM NAO SIM 
NAO SIM NAO NAO 
NAO SIM NAO NAO 
NAO SIM NAO NAO 
NAO SIM NAO NAO 
NAO SIM NAO NAO 
NAO SIM NAO NAO 
NAO SIM NAO SIM 
NAO SIM NAO SIM 
NAO SIM NAO NAO 
